#k_harragrar
##d_harra
###c_harrabad
6103 = {

    # Misc
    culture = damerian
    religion = cult_of_the_dame
	holding = tribal_holding

    # History
}
6699 = {

    # Misc
    culture = damerian
    religion = cult_of_the_dame
	holding = none

    # History
}
6700 = {

    # Misc
    culture = damerian
    religion = cult_of_the_dame
	holding = city_holding

    # History
}
6701 = {

    # Misc
    culture = damerian
    religion = cult_of_the_dame
	holding = none

    # History
}
###c_grarrir
583 = {

    # Misc
    culture = damerian
    religion = cult_of_the_dame
	holding = tribal_holding

    # History
}
6702 = {

    # Misc
    culture = damerian
    religion = cult_of_the_dame
	holding = none

    # History
}
6703 = {

    # Misc
    culture = damerian
    religion = cult_of_the_dame
	holding = none

    # History
}
6704 = {

    # Misc
    culture = damerian
    religion = cult_of_the_dame
	holding = none

    # History
}
###c_kargazna
571 = {

    # Misc
    culture = damerian
    religion = cult_of_the_dame
	holding = tribal_holding

    # History
}
6705 = {

    # Misc
    culture = damerian
    religion = cult_of_the_dame
	holding = none

    # History
}
6706 = {

    # Misc
    culture = damerian
    religion = cult_of_the_dame
	holding = none

    # History
}
##d_ardu
###c_ardu
681 = {

    # Misc
    culture = damerian
    religion = cult_of_the_dame
	holding = tribal_holding

    # History
}
6707 = {

    # Misc
    culture = damerian
    religion = cult_of_the_dame
	holding = none

    # History
}
###c_irkorzo
684 = {

    # Misc
    culture = damerian
    religion = cult_of_the_dame
	holding = tribal_holding

    # History
}
2944 = {

    # Misc
    culture = damerian
    religion = cult_of_the_dame
	holding = none

    # History
}
###c_xhurgrum
6708 = {

    # Misc
    culture = damerian
    religion = cult_of_the_dame
	holding = tribal_holding

    # History
}
2945 = {

    # Misc
    culture = damerian
    religion = cult_of_the_dame
	holding = none

    # History
}
##d_krahway
###c_krahway
6101 = {

    # Misc
    culture = damerian
    religion = cult_of_the_dame
	holding = tribal_holding

    # History
}
6709 = {

    # Misc
    culture = damerian
    religion = cult_of_the_dame
	holding = none

    # History
}
6710 = {

    # Misc
    culture = damerian
    religion = cult_of_the_dame
	holding = none

    # History
}
###c_dunegap
6100 = {

    # Misc
    culture = damerian
    religion = cult_of_the_dame
	holding = tribal_holding

    # History
}
6711 = {

    # Misc
    culture = damerian
    religion = cult_of_the_dame
	holding = none

    # History
}
###c_windsculpt_pass
6104 = {

    # Misc
    culture = damerian
    religion = cult_of_the_dame
	holding = tribal_holding

    # History
}
6712 = {

    # Misc
    culture = damerian
    religion = cult_of_the_dame
	holding = none

    # History
}
###c_xornazahar
6102 = {

    # Misc
    culture = damerian
    religion = cult_of_the_dame
	holding = tribal_holding

    # History
}
6713 = {

    # Misc
    culture = damerian
    religion = cult_of_the_dame
	holding = none

    # History
}